module gitlab.com/Alexandrhub/grpc-chat

go 1.19

require (
	github.com/joho/godotenv v1.5.1
	github.com/sashabaranov/go-openai v1.17.10
	google.golang.org/grpc v1.60.1
	google.golang.org/protobuf v1.32.0
)

require (
	github.com/golang/protobuf v1.5.3 // indirect
	golang.org/x/net v0.16.0 // indirect
	golang.org/x/sys v0.13.0 // indirect
	golang.org/x/text v0.13.0 // indirect
	google.golang.org/genproto/googleapis/rpc v0.0.0-20231002182017-d307bd883b97 // indirect
)
